{
	"info": {
		"_postman_id": "ddaaeb21-b203-4844-b374-3cfc1621523c",
		"name": "reactive-hibernate",
		"schema": "https://schema.getpostman.com/json/collection/v2.1.0/collection.json",
		"_exporter_id": "4103118"
	},
	"item": [
		{
			"name": "add-movie",
			"request": {
				"method": "POST",
				"header": [
					{
						"key": "Content-Type",
						"value": "application/json",
						"type": "text"
					}
				],
				"body": {
					"mode": "raw",
					"raw": "{\"title\":\"movie_title\",\"description\":\"movie_description\"}"
				},
				"url": {
					"raw": "http://localhost:8080/movies",
					"protocol": "http",
					"host": [
						"localhost"
					],
					"port": "8080",
					"path": [
						"movies"
					]
				}
			},
			"response": []
		},
		{
			"name": "retrieve-movies",
			"request": {
				"method": "GET",
				"header": [
					{
						"key": "Content-Type",
						"value": "application/json",
						"type": "text"
					}
				],
				"url": {
					"raw": "http://localhost:8080/movies",
					"protocol": "http",
					"host": [
						"localhost"
					],
					"port": "8080",
					"path": [
						"movies"
					]
				}
			},
			"response": []
		}
	]
}